%YAML 1.1
%TAG !u! tag:unity3d.com,2011:
--- !u!114 &11400000
MonoBehaviour:
  m_ObjectHideFlags: 0
  m_PrefabParentObject: {fileID: 0}
  m_PrefabInternal: {fileID: 0}
  m_GameObject: {fileID: 0}
  m_Enabled: 1
  m_EditorHideFlags: 0
  m_Script: {fileID: 11500000, guid: fd221e5d1d315d94c9d61361ae3b07a0, type: 3}
  m_Name: 3
  m_EditorClassIdentifier: 
  onCooldown: 0
  totalPotentialWeight: 15
  currentWeight: 50
  interruptible: 0
  canCancel: 1
  actions:
  - {fileID: 11400000, guid: d2de431a0ce5cd74d94ed93cc803e1c7, type: 2}
  - {fileID: 11400000, guid: ce5ba7f1d10c9bd4794fe9701bfb3dd6, type: 2}
  - {fileID: 11400000, guid: 59c91223976eaae429f55d0c57ee12ea, type: 2}
  targetFleeing:
    flatWeight: 5
    currentWeight: 0
    losMask:
      serializedVersion: 2
      m_Bits: 0
  targetReached:
    flatWeight: 0
    currentWeight: 0
    losMask:
      serializedVersion: 2
      m_Bits: 0
  hasLosToTarget:
    flatWeight: 15
    currentWeight: 0
    losMask:
      serializedVersion: 2
      m_Bits: 0
  proximityToTarget:
    curve:
      serializedVersion: 2
      m_Curve:
      - serializedVersion: 2
        time: 0
        value: 15
        inSlope: Infinity
        outSlope: Infinity
        tangentMode: 103
      - serializedVersion: 2
        time: 11.5
        value: 10
        inSlope: -0.4347826
        outSlope: -0.4347826
        tangentMode: 34
      m_PreInfinity: 2
      m_PostInfinity: 2
      m_RotationOrder: 0
    maxWeight: 0
    currentWeight: 0
  health:
    curve:
      serializedVersion: 2
      m_Curve:
      - serializedVersion: 2
        time: 0
        value: 0
        inSlope: 5.6834807
        outSlope: 5.6834807
        tangentMode: 34
      - serializedVersion: 2
        time: 10
        value: 10
        inSlope: Infinity
        outSlope: Infinity
        tangentMode: 103
      - serializedVersion: 2
        time: 33
        value: 20
        inSlope: Infinity
        outSlope: Infinity
        tangentMode: 103
      - serializedVersion: 2
        time: 50
        value: 40
        inSlope: Infinity
        outSlope: Infinity
        tangentMode: 103
      - serializedVersion: 2
        time: 75
        value: 40
        inSlope: 0
        outSlope: 0
        tangentMode: 34
      m_PreInfinity: 2
      m_PostInfinity: 2
      m_RotationOrder: 0
    maxWeight: 0
    currentWeight: 0
  losMask:
    serializedVersion: 2
    m_Bits: 0
