%YAML 1.1
%TAG !u! tag:unity3d.com,2011:
--- !u!114 &11400000
MonoBehaviour:
  m_ObjectHideFlags: 0
  m_PrefabParentObject: {fileID: 0}
  m_PrefabInternal: {fileID: 0}
  m_GameObject: {fileID: 0}
  m_Enabled: 1
  m_EditorHideFlags: 0
  m_Script: {fileID: 11500000, guid: fd221e5d1d315d94c9d61361ae3b07a0, type: 3}
  m_Name: 6
  m_EditorClassIdentifier: 
  onCooldown: 0
  totalPotentialWeight: 0
  currentWeight: 0
  interruptible: 0
  canCancel: 1
  actions: []
  targetFleeing:
    flatWeight: 0
    currentWeight: 0
    losMask:
      serializedVersion: 2
      m_Bits: 0
  targetReached:
    flatWeight: 0
    currentWeight: 0
    losMask:
      serializedVersion: 2
      m_Bits: 0
  hasLosToTarget:
    flatWeight: 0
    currentWeight: 0
    losMask:
      serializedVersion: 2
      m_Bits: 0
  proximityToTarget:
    curve:
      serializedVersion: 2
      m_Curve: []
      m_PreInfinity: 2
      m_PostInfinity: 2
      m_RotationOrder: 4
    maxWeight: 0
    currentWeight: 0
  losMask:
    serializedVersion: 2
    m_Bits: 0
