%YAML 1.1
%TAG !u! tag:unity3d.com,2011:
--- !u!114 &11400000
MonoBehaviour:
  m_ObjectHideFlags: 0
  m_PrefabParentObject: {fileID: 0}
  m_PrefabInternal: {fileID: 0}
  m_GameObject: {fileID: 0}
  m_Enabled: 1
  m_EditorHideFlags: 0
  m_Script: {fileID: 11500000, guid: cff73794dad8da64baeb458e1a7fb32d, type: 3}
  m_Name: ChargedPBAoE
  m_EditorClassIdentifier: 
  onCooldown: 1
  totalPotentialWeight: 80
  currentWeight: 68.003365
  interruptible: 0
  canCancel: 1
  skillFX: {fileID: 1000013386601586, guid: 34019abd3c7078b48b5177b2b49d1f67, type: 2}
  chargeTime: 4
  damage: 80
  radius: 40
  cooldown: 0
  chargeCamShakeAmt: 0.1
  explosionCamShakeAmt: 3
  explosionCamShakeDuration: 0.2
  validTargets:
    serializedVersion: 2
    m_Bits: 32768
  losMask:
    serializedVersion: 2
    m_Bits: 98304
  proximityToPlayer:
    curve:
      serializedVersion: 2
      m_Curve:
      - serializedVersion: 2
        time: 0
        value: 50
        inSlope: 1.5
        outSlope: 1.5
        tangentMode: 34
      - serializedVersion: 2
        time: 20
        value: 80
        inSlope: 1.5
        outSlope: 1.5
        tangentMode: 34
      m_PreInfinity: 2
      m_PostInfinity: 2
      m_RotationOrder: 0
    maxWeight: 0
    currentWeight: 0
  health:
    curve:
      serializedVersion: 2
      m_Curve: []
      m_PreInfinity: 2
      m_PostInfinity: 2
      m_RotationOrder: 4
    maxWeight: 0
    currentWeight: 0
