%YAML 1.1
%TAG !u! tag:unity3d.com,2011:
--- !u!114 &11400000
MonoBehaviour:
  m_ObjectHideFlags: 0
  m_PrefabParentObject: {fileID: 0}
  m_PrefabInternal: {fileID: 0}
  m_GameObject: {fileID: 0}
  m_Enabled: 1
  m_EditorHideFlags: 0
  m_Script: {fileID: 11500000, guid: 2ee96f5f45ed48a4e89026c7e7289cd5, type: 3}
  m_Name: EmptyAction
  m_EditorClassIdentifier: 
  totalPotentialWeight: 0
  currentWeight: 0
  interruptible: 0
