%YAML 1.1
%TAG !u! tag:unity3d.com,2011:
--- !u!114 &11400000
MonoBehaviour:
  m_ObjectHideFlags: 0
  m_PrefabParentObject: {fileID: 0}
  m_PrefabInternal: {fileID: 0}
  m_GameObject: {fileID: 0}
  m_Enabled: 1
  m_EditorHideFlags: 0
  m_Script: {fileID: 11500000, guid: fd221e5d1d315d94c9d61361ae3b07a0, type: 3}
  m_Name: Fakeout
  m_EditorClassIdentifier: 
  onCooldown: 0
  totalPotentialWeight: 0
  currentWeight: 0
  interruptible: 0
  canCancel: 1
  actions:
  - {fileID: 11400000, guid: d2de431a0ce5cd74d94ed93cc803e1c7, type: 2}
  - {fileID: 11400000, guid: 7cf448d5cc876e24f8bf31eeea484bbc, type: 2}
  - {fileID: 11400000, guid: 2a9ede45fd54d1a408e6c089f1bc846c, type: 2}
  proximityToTarget:
    curve:
      serializedVersion: 2
      m_Curve: []
      m_PreInfinity: 2
      m_PostInfinity: 2
      m_RotationOrder: 4
    maxWeight: 0
    currentWeight: 0
