%YAML 1.1
%TAG !u! tag:unity3d.com,2011:
--- !u!1011 &101100000
AvatarMask:
  m_ObjectHideFlags: 0
  m_PrefabParentObject: {fileID: 0}
  m_PrefabInternal: {fileID: 0}
  m_Name: UpperBodyMask
  m_Mask: 00000000000000000000000000000000000000000000000001000000000000000100000000000000000000000000000000000000
  m_Elements:
  - m_Path: 
    m_Weight: 1
  - m_Path: arissa:Hips
    m_Weight: 1
  - m_Path: arissa:Hips/arissa:Spine
    m_Weight: 1
  - m_Path: arissa:Hips/arissa:Spine/arissa:Spine1
    m_Weight: 1
  - m_Path: arissa:Hips/arissa:Spine/arissa:Spine1/arissa:Spine2
    m_Weight: 1
  - m_Path: arissa:Hips/arissa:Spine/arissa:Spine1/arissa:Spine2/arissa:Neck
    m_Weight: 1
  - m_Path: arissa:Hips/arissa:Spine/arissa:Spine1/arissa:Spine2/arissa:Neck/arissa:Neck1
    m_Weight: 1
  - m_Path: arissa:Hips/arissa:Spine/arissa:Spine1/arissa:Spine2/arissa:Neck/arissa:Neck1/arissa:Head
    m_Weight: 1
  - m_Path: arissa:Hips/arissa:Spine/arissa:Spine1/arissa:Spine2/arissa:Neck/arissa:Neck1/arissa:Head/arissa:HeadTop_End
    m_Weight: 1
  - m_Path: arissa:Hips/arissa:Spine/arissa:Spine1/arissa:Spine2/arissa:LeftShoulder
    m_Weight: 1
  - m_Path: arissa:Hips/arissa:Spine/arissa:Spine1/arissa:Spine2/arissa:LeftShoulder/arissa:LeftArm
    m_Weight: 1
  - m_Path: arissa:Hips/arissa:Spine/arissa:Spine1/arissa:Spine2/arissa:LeftShoulder/arissa:LeftArm/arissa:LeftForeArm
    m_Weight: 1
  - m_Path: arissa:Hips/arissa:Spine/arissa:Spine1/arissa:Spine2/arissa:LeftShoulder/arissa:LeftArm/arissa:LeftForeArm/arissa:LeftHand
    m_Weight: 1
  - m_Path: arissa:Hips/arissa:Spine/arissa:Spine1/arissa:Spine2/arissa:LeftShoulder/arissa:LeftArm/arissa:LeftForeArm/arissa:LeftHand/arissa:LeftHandThumb1
    m_Weight: 1
  - m_Path: arissa:Hips/arissa:Spine/arissa:Spine1/arissa:Spine2/arissa:LeftShoulder/arissa:LeftArm/arissa:LeftForeArm/arissa:LeftHand/arissa:LeftHandThumb1/arissa:LeftHandThumb2
    m_Weight: 1
  - m_Path: arissa:Hips/arissa:Spine/arissa:Spine1/arissa:Spine2/arissa:LeftShoulder/arissa:LeftArm/arissa:LeftForeArm/arissa:LeftHand/arissa:LeftHandThumb1/arissa:LeftHandThumb2/arissa:LeftHandThumb3
    m_Weight: 1
  - m_Path: arissa:Hips/arissa:Spine/arissa:Spine1/arissa:Spine2/arissa:LeftShoulder/arissa:LeftArm/arissa:LeftForeArm/arissa:LeftHand/arissa:LeftHandThumb1/arissa:LeftHandThumb2/arissa:LeftHandThumb3/arissa:LeftHandThumb4
    m_Weight: 1
  - m_Path: arissa:Hips/arissa:Spine/arissa:Spine1/arissa:Spine2/arissa:LeftShoulder/arissa:LeftArm/arissa:LeftForeArm/arissa:LeftHand/arissa:LeftHandThumb1/arissa:LeftHandThumb2/arissa:LeftHandThumb3/arissa:LeftHandThumb5
    m_Weight: 1
  - m_Path: arissa:Hips/arissa:Spine/arissa:Spine1/arissa:Spine2/arissa:LeftShoulder/arissa:LeftArm/arissa:LeftForeArm/arissa:LeftHand/arissa:LeftHandMiddle1
    m_Weight: 1
  - m_Path: arissa:Hips/arissa:Spine/arissa:Spine1/arissa:Spine2/arissa:LeftShoulder/arissa:LeftArm/arissa:LeftForeArm/arissa:LeftHand/arissa:LeftHandMiddle1/arissa:LeftHandMiddle2
    m_Weight: 1
  - m_Path: arissa:Hips/arissa:Spine/arissa:Spine1/arissa:Spine2/arissa:LeftShoulder/arissa:LeftArm/arissa:LeftForeArm/arissa:LeftHand/arissa:LeftHandMiddle1/arissa:LeftHandMiddle2/arissa:LeftHandMiddle3
    m_Weight: 1
  - m_Path: arissa:Hips/arissa:Spine/arissa:Spine1/arissa:Spine2/arissa:LeftShoulder/arissa:LeftArm/arissa:LeftForeArm/arissa:LeftHand/arissa:LeftHandMiddle1/arissa:LeftHandMiddle2/arissa:LeftHandMiddle3/arissa:LeftHandMiddle4
    m_Weight: 1
  - m_Path: arissa:Hips/arissa:Spine/arissa:Spine1/arissa:Spine2/arissa:LeftShoulder/arissa:LeftArm/arissa:LeftForeArm/arissa:LeftHand/arissa:LeftHandMiddle1/arissa:LeftHandMiddle2/arissa:LeftHandMiddle3/arissa:LeftHandMiddle5
    m_Weight: 1
  - m_Path: arissa:Hips/arissa:Spine/arissa:Spine1/arissa:Spine2/arissa:LeftShoulder/arissa:LeftArm/arissa:LeftForeArm/arissa:LeftHand/arissa:LeftHandIndex1
    m_Weight: 1
  - m_Path: arissa:Hips/arissa:Spine/arissa:Spine1/arissa:Spine2/arissa:LeftShoulder/arissa:LeftArm/arissa:LeftForeArm/arissa:LeftHand/arissa:LeftHandIndex1/arissa:LeftHandIndex2
    m_Weight: 1
  - m_Path: arissa:Hips/arissa:Spine/arissa:Spine1/arissa:Spine2/arissa:LeftShoulder/arissa:LeftArm/arissa:LeftForeArm/arissa:LeftHand/arissa:LeftHandIndex1/arissa:LeftHandIndex2/arissa:LeftHandIndex3
    m_Weight: 1
  - m_Path: arissa:Hips/arissa:Spine/arissa:Spine1/arissa:Spine2/arissa:LeftShoulder/arissa:LeftArm/arissa:LeftForeArm/arissa:LeftHand/arissa:LeftHandIndex1/arissa:LeftHandIndex2/arissa:LeftHandIndex3/arissa:LeftHandIndex4
    m_Weight: 1
  - m_Path: arissa:Hips/arissa:Spine/arissa:Spine1/arissa:Spine2/arissa:LeftShoulder/arissa:LeftArm/arissa:LeftForeArm/arissa:LeftHand/arissa:LeftHandIndex1/arissa:LeftHandIndex2/arissa:LeftHandIndex3/arissa:LeftHandIndex5
    m_Weight: 1
  - m_Path: arissa:Hips/arissa:Spine/arissa:Spine1/arissa:Spine2/arissa:LeftShoulder/arissa:LeftArm/arissa:LeftForeArm/arissa:LeftHand/arissa:LeftHandRing1
    m_Weight: 1
  - m_Path: arissa:Hips/arissa:Spine/arissa:Spine1/arissa:Spine2/arissa:LeftShoulder/arissa:LeftArm/arissa:LeftForeArm/arissa:LeftHand/arissa:LeftHandRing1/arissa:LeftHandRing2
    m_Weight: 1
  - m_Path: arissa:Hips/arissa:Spine/arissa:Spine1/arissa:Spine2/arissa:LeftShoulder/arissa:LeftArm/arissa:LeftForeArm/arissa:LeftHand/arissa:LeftHandRing1/arissa:LeftHandRing2/arissa:LeftHandRing3
    m_Weight: 1
  - m_Path: arissa:Hips/arissa:Spine/arissa:Spine1/arissa:Spine2/arissa:LeftShoulder/arissa:LeftArm/arissa:LeftForeArm/arissa:LeftHand/arissa:LeftHandRing1/arissa:LeftHandRing2/arissa:LeftHandRing3/arissa:LeftHandRing4
    m_Weight: 1
  - m_Path: arissa:Hips/arissa:Spine/arissa:Spine1/arissa:Spine2/arissa:LeftShoulder/arissa:LeftArm/arissa:LeftForeArm/arissa:LeftHand/arissa:LeftHandRing1/arissa:LeftHandRing2/arissa:LeftHandRing3/arissa:LeftHandRing5
    m_Weight: 1
  - m_Path: arissa:Hips/arissa:Spine/arissa:Spine1/arissa:Spine2/arissa:LeftShoulder/arissa:LeftArm/arissa:LeftForeArm/arissa:LeftHand/arissa:LeftHandPinky1
    m_Weight: 1
  - m_Path: arissa:Hips/arissa:Spine/arissa:Spine1/arissa:Spine2/arissa:LeftShoulder/arissa:LeftArm/arissa:LeftForeArm/arissa:LeftHand/arissa:LeftHandPinky1/arissa:LeftHandPinky2
    m_Weight: 1
  - m_Path: arissa:Hips/arissa:Spine/arissa:Spine1/arissa:Spine2/arissa:LeftShoulder/arissa:LeftArm/arissa:LeftForeArm/arissa:LeftHand/arissa:LeftHandPinky1/arissa:LeftHandPinky2/arissa:LeftHandPinky3
    m_Weight: 1
  - m_Path: arissa:Hips/arissa:Spine/arissa:Spine1/arissa:Spine2/arissa:LeftShoulder/arissa:LeftArm/arissa:LeftForeArm/arissa:LeftHand/arissa:LeftHandPinky1/arissa:LeftHandPinky2/arissa:LeftHandPinky3/arissa:LeftHandPinky4
    m_Weight: 1
  - m_Path: arissa:Hips/arissa:Spine/arissa:Spine1/arissa:Spine2/arissa:LeftShoulder/arissa:LeftArm/arissa:LeftForeArm/arissa:LeftHand/arissa:LeftHandPinky1/arissa:LeftHandPinky2/arissa:LeftHandPinky3/arissa:LeftHandPinky5
    m_Weight: 1
  - m_Path: arissa:Hips/arissa:Spine/arissa:Spine1/arissa:Spine2/arissa:RightShoulder
    m_Weight: 1
  - m_Path: arissa:Hips/arissa:Spine/arissa:Spine1/arissa:Spine2/arissa:RightShoulder/arissa:RightArm
    m_Weight: 1
  - m_Path: arissa:Hips/arissa:Spine/arissa:Spine1/arissa:Spine2/arissa:RightShoulder/arissa:RightArm/arissa:RightForeArm
    m_Weight: 1
  - m_Path: arissa:Hips/arissa:Spine/arissa:Spine1/arissa:Spine2/arissa:RightShoulder/arissa:RightArm/arissa:RightForeArm/arissa:RightHand
    m_Weight: 1
  - m_Path: arissa:Hips/arissa:Spine/arissa:Spine1/arissa:Spine2/arissa:RightShoulder/arissa:RightArm/arissa:RightForeArm/arissa:RightHand/arissa:RightHandThumb1
    m_Weight: 1
  - m_Path: arissa:Hips/arissa:Spine/arissa:Spine1/arissa:Spine2/arissa:RightShoulder/arissa:RightArm/arissa:RightForeArm/arissa:RightHand/arissa:RightHandThumb1/arissa:RightHandThumb2
    m_Weight: 1
  - m_Path: arissa:Hips/arissa:Spine/arissa:Spine1/arissa:Spine2/arissa:RightShoulder/arissa:RightArm/arissa:RightForeArm/arissa:RightHand/arissa:RightHandThumb1/arissa:RightHandThumb2/arissa:RightHandThumb3
    m_Weight: 1
  - m_Path: arissa:Hips/arissa:Spine/arissa:Spine1/arissa:Spine2/arissa:RightShoulder/arissa:RightArm/arissa:RightForeArm/arissa:RightHand/arissa:RightHandThumb1/arissa:RightHandThumb2/arissa:RightHandThumb3/arissa:RightHandThumb4
    m_Weight: 1
  - m_Path: arissa:Hips/arissa:Spine/arissa:Spine1/arissa:Spine2/arissa:RightShoulder/arissa:RightArm/arissa:RightForeArm/arissa:RightHand/arissa:RightHandThumb1/arissa:RightHandThumb2/arissa:RightHandThumb3/arissa:RightHandThumb5
    m_Weight: 1
  - m_Path: arissa:Hips/arissa:Spine/arissa:Spine1/arissa:Spine2/arissa:RightShoulder/arissa:RightArm/arissa:RightForeArm/arissa:RightHand/arissa:RightHandIndex1
    m_Weight: 1
  - m_Path: arissa:Hips/arissa:Spine/arissa:Spine1/arissa:Spine2/arissa:RightShoulder/arissa:RightArm/arissa:RightForeArm/arissa:RightHand/arissa:RightHandIndex1/arissa:RightHandIndex2
    m_Weight: 1
  - m_Path: arissa:Hips/arissa:Spine/arissa:Spine1/arissa:Spine2/arissa:RightShoulder/arissa:RightArm/arissa:RightForeArm/arissa:RightHand/arissa:RightHandIndex1/arissa:RightHandIndex2/arissa:RightHandIndex3
    m_Weight: 1
  - m_Path: arissa:Hips/arissa:Spine/arissa:Spine1/arissa:Spine2/arissa:RightShoulder/arissa:RightArm/arissa:RightForeArm/arissa:RightHand/arissa:RightHandIndex1/arissa:RightHandIndex2/arissa:RightHandIndex3/arissa:RightHandIndex4
    m_Weight: 1
  - m_Path: arissa:Hips/arissa:Spine/arissa:Spine1/arissa:Spine2/arissa:RightShoulder/arissa:RightArm/arissa:RightForeArm/arissa:RightHand/arissa:RightHandIndex1/arissa:RightHandIndex2/arissa:RightHandIndex3/arissa:RightHandIndex5
    m_Weight: 1
  - m_Path: arissa:Hips/arissa:Spine/arissa:Spine1/arissa:Spine2/arissa:RightShoulder/arissa:RightArm/arissa:RightForeArm/arissa:RightHand/arissa:RightHandMiddle1
    m_Weight: 1
  - m_Path: arissa:Hips/arissa:Spine/arissa:Spine1/arissa:Spine2/arissa:RightShoulder/arissa:RightArm/arissa:RightForeArm/arissa:RightHand/arissa:RightHandMiddle1/arissa:RightHandMiddle2
    m_Weight: 1
  - m_Path: arissa:Hips/arissa:Spine/arissa:Spine1/arissa:Spine2/arissa:RightShoulder/arissa:RightArm/arissa:RightForeArm/arissa:RightHand/arissa:RightHandMiddle1/arissa:RightHandMiddle2/arissa:RightHandMiddle3
    m_Weight: 1
  - m_Path: arissa:Hips/arissa:Spine/arissa:Spine1/arissa:Spine2/arissa:RightShoulder/arissa:RightArm/arissa:RightForeArm/arissa:RightHand/arissa:RightHandMiddle1/arissa:RightHandMiddle2/arissa:RightHandMiddle3/arissa:RightHandMiddle4
    m_Weight: 1
  - m_Path: arissa:Hips/arissa:Spine/arissa:Spine1/arissa:Spine2/arissa:RightShoulder/arissa:RightArm/arissa:RightForeArm/arissa:RightHand/arissa:RightHandMiddle1/arissa:RightHandMiddle2/arissa:RightHandMiddle3/arissa:RightHandMiddle5
    m_Weight: 1
  - m_Path: arissa:Hips/arissa:Spine/arissa:Spine1/arissa:Spine2/arissa:RightShoulder/arissa:RightArm/arissa:RightForeArm/arissa:RightHand/arissa:RightHandRing1
    m_Weight: 1
  - m_Path: arissa:Hips/arissa:Spine/arissa:Spine1/arissa:Spine2/arissa:RightShoulder/arissa:RightArm/arissa:RightForeArm/arissa:RightHand/arissa:RightHandRing1/arissa:RightHandRing2
    m_Weight: 1
  - m_Path: arissa:Hips/arissa:Spine/arissa:Spine1/arissa:Spine2/arissa:RightShoulder/arissa:RightArm/arissa:RightForeArm/arissa:RightHand/arissa:RightHandRing1/arissa:RightHandRing2/arissa:RightHandRing3
    m_Weight: 1
  - m_Path: arissa:Hips/arissa:Spine/arissa:Spine1/arissa:Spine2/arissa:RightShoulder/arissa:RightArm/arissa:RightForeArm/arissa:RightHand/arissa:RightHandRing1/arissa:RightHandRing2/arissa:RightHandRing3/arissa:RightHandRing4
    m_Weight: 1
  - m_Path: arissa:Hips/arissa:Spine/arissa:Spine1/arissa:Spine2/arissa:RightShoulder/arissa:RightArm/arissa:RightForeArm/arissa:RightHand/arissa:RightHandRing1/arissa:RightHandRing2/arissa:RightHandRing3/arissa:RightHandRing5
    m_Weight: 1
  - m_Path: arissa:Hips/arissa:Spine/arissa:Spine1/arissa:Spine2/arissa:RightShoulder/arissa:RightArm/arissa:RightForeArm/arissa:RightHand/arissa:RightHandPinky1
    m_Weight: 1
  - m_Path: arissa:Hips/arissa:Spine/arissa:Spine1/arissa:Spine2/arissa:RightShoulder/arissa:RightArm/arissa:RightForeArm/arissa:RightHand/arissa:RightHandPinky1/arissa:RightHandPinky2
    m_Weight: 1
  - m_Path: arissa:Hips/arissa:Spine/arissa:Spine1/arissa:Spine2/arissa:RightShoulder/arissa:RightArm/arissa:RightForeArm/arissa:RightHand/arissa:RightHandPinky1/arissa:RightHandPinky2/arissa:RightHandPinky3
    m_Weight: 1
  - m_Path: arissa:Hips/arissa:Spine/arissa:Spine1/arissa:Spine2/arissa:RightShoulder/arissa:RightArm/arissa:RightForeArm/arissa:RightHand/arissa:RightHandPinky1/arissa:RightHandPinky2/arissa:RightHandPinky3/arissa:RightHandPinky4
    m_Weight: 1
  - m_Path: arissa:Hips/arissa:Spine/arissa:Spine1/arissa:Spine2/arissa:RightShoulder/arissa:RightArm/arissa:RightForeArm/arissa:RightHand/arissa:RightHandPinky1/arissa:RightHandPinky2/arissa:RightHandPinky3/arissa:RightHandPinky5
    m_Weight: 1
  - m_Path: arissa:Hips/arissa:LeftUpLeg
    m_Weight: 1
  - m_Path: arissa:Hips/arissa:LeftUpLeg/arissa:LeftLeg
    m_Weight: 1
  - m_Path: arissa:Hips/arissa:LeftUpLeg/arissa:LeftLeg/arissa:LeftFoot
    m_Weight: 1
  - m_Path: arissa:Hips/arissa:LeftUpLeg/arissa:LeftLeg/arissa:LeftFoot/arissa:LeftToeBase
    m_Weight: 1
  - m_Path: arissa:Hips/arissa:LeftUpLeg/arissa:LeftLeg/arissa:LeftFoot/arissa:LeftToeBase/arissa:LeftFootToeBase_End
    m_Weight: 1
  - m_Path: arissa:Hips/arissa:RightUpLeg
    m_Weight: 1
  - m_Path: arissa:Hips/arissa:RightUpLeg/arissa:RightLeg
    m_Weight: 1
  - m_Path: arissa:Hips/arissa:RightUpLeg/arissa:RightLeg/arissa:RightFoot
    m_Weight: 1
  - m_Path: arissa:Hips/arissa:RightUpLeg/arissa:RightLeg/arissa:RightFoot/arissa:RightToeBase
    m_Weight: 1
  - m_Path: arissa:Hips/arissa:RightUpLeg/arissa:RightLeg/arissa:RightFoot/arissa:RightToeBase/arissa:RightFootToeBase_End
    m_Weight: 1
  - m_Path: arissa:Meshes
    m_Weight: 1
  - m_Path: arissa:Meshes/arissa:Body_Geo
    m_Weight: 1
  - m_Path: arissa:Meshes/arissa:Cloak_Geo
    m_Weight: 1
  - m_Path: arissa:Meshes/arissa:Weapons_Geo
    m_Weight: 1
  - m_Path: arissa:Meshes/arissa:Skirt_Geo
    m_Weight: 1
